2018-06-04 11:18:22,570:DEBUG:certbot.main:certbot version: 0.24.0
2018-06-04 11:18:22,571:DEBUG:certbot.main:Arguments: ['--config-dir', './', '--work-dir', './', '--logs-dir', './']
2018-06-04 11:18:22,571:DEBUG:certbot.main:Discovered plugins: PluginsRegistry(PluginEntryPoint#manual,PluginEntryPoint#null,PluginEntryPoint#standalone,PluginEntryPoint#webroot)
2018-06-04 11:18:22,602:DEBUG:certbot.log:Root logging level set at 20
2018-06-04 11:18:22,603:INFO:certbot.log:Saving debug log to /Users/david/dev/vario.buildlog/certbot/letsencrypt.log
2018-06-04 11:18:22,604:DEBUG:certbot.plugins.selection:Requested authenticator None and installer None
2018-06-04 11:18:22,604:DEBUG:certbot.plugins.selection:No candidate plugin
2018-06-04 11:18:22,604:DEBUG:certbot.plugins.selection:Selected authenticator None and installer None
