2018-06-04 11:20:25,469:DEBUG:certbot.main:certbot version: 0.24.0
2018-06-04 11:20:25,469:DEBUG:certbot.main:Arguments: ['--manual', '--config-dir', './', '--work-dir', './', '--logs-dir', './', '-d', 'buildlog.vair.io']
2018-06-04 11:20:25,469:DEBUG:certbot.main:Discovered plugins: PluginsRegistry(PluginEntryPoint#manual,PluginEntryPoint#null,PluginEntryPoint#standalone,PluginEntryPoint#webroot)
2018-06-04 11:20:25,500:DEBUG:certbot.log:Root logging level set at 20
2018-06-04 11:20:25,501:INFO:certbot.log:Saving debug log to /Users/david/dev/vario.buildlog/certbot/letsencrypt.log
2018-06-04 11:20:25,502:DEBUG:certbot.plugins.selection:Requested authenticator manual and installer None
2018-06-04 11:20:25,505:DEBUG:certbot.plugins.selection:Single candidate plugin: * manual
Description: Manual configuration or run your own shell scripts
Interfaces: IAuthenticator, IPlugin
Entry point: manual = certbot.plugins.manual:Authenticator
Initialized: <certbot.plugins.manual.Authenticator object at 0x10714a290>
Prep: True
2018-06-04 11:20:25,506:DEBUG:certbot.plugins.selection:Selected authenticator <certbot.plugins.manual.Authenticator object at 0x10714a290> and installer None
2018-06-04 11:20:25,506:INFO:certbot.plugins.selection:Plugins selected: Authenticator manual, Installer None
2018-06-04 11:20:25,509:DEBUG:certbot.main:Picked account: <Account(RegistrationResource(body=Registration(status=u'valid', terms_of_service_agreed=None, contact=(u'mailto:david@vair.io',), agreement=u'https://letsencrypt.org/documents/LE-SA-v1.2-November-15-2017.pdf', key=JWKRSA(key=<ComparableRSAKey(<cryptography.hazmat.backends.openssl.rsa._RSAPublicKey object at 0x1071b8290>)>)), uri=u'https://acme-v01.api.letsencrypt.org/acme/reg/36080567', new_authzr_uri=u'https://acme-v01.api.letsencrypt.org/acme/new-authz', terms_of_service=u'https://letsencrypt.org/documents/LE-SA-v1.2-November-15-2017.pdf'), 463c970b956a24ea904beade7688c2c8, Meta(creation_host=u'davids-macbook-pro.local', creation_dt=datetime.datetime(2018, 6, 4, 18, 19, 29, tzinfo=<UTC>)))>
2018-06-04 11:20:25,523:DEBUG:acme.client:Sending GET request to https://acme-v01.api.letsencrypt.org/directory.
2018-06-04 11:20:25,565:DEBUG:urllib3.connectionpool:Starting new HTTPS connection (1): acme-v01.api.letsencrypt.org
2018-06-04 11:20:25,797:DEBUG:urllib3.connectionpool:https://acme-v01.api.letsencrypt.org:443 "GET /directory HTTP/1.1" 200 658
2018-06-04 11:20:25,798:DEBUG:acme.client:Received response:
HTTP 200
Server: nginx
Content-Type: application/json
Content-Length: 658
Replay-Nonce: 85JG6HZd1CetXnEBaj-nV-gKhYW_cImkHp-mfOFiPF8
X-Frame-Options: DENY
Strict-Transport-Security: max-age=604800
Expires: Mon, 04 Jun 2018 18:20:25 GMT
Cache-Control: max-age=0, no-cache, no-store
Pragma: no-cache
Date: Mon, 04 Jun 2018 18:20:25 GMT
Connection: keep-alive

{
  "WeqfAUDJUxA": "https://community.letsencrypt.org/t/adding-random-entries-to-the-directory/33417",
  "key-change": "https://acme-v01.api.letsencrypt.org/acme/key-change",
  "meta": {
    "caaIdentities": [
      "letsencrypt.org"
    ],
    "terms-of-service": "https://letsencrypt.org/documents/LE-SA-v1.2-November-15-2017.pdf",
    "website": "https://letsencrypt.org"
  },
  "new-authz": "https://acme-v01.api.letsencrypt.org/acme/new-authz",
  "new-cert": "https://acme-v01.api.letsencrypt.org/acme/new-cert",
  "new-reg": "https://acme-v01.api.letsencrypt.org/acme/new-reg",
  "revoke-cert": "https://acme-v01.api.letsencrypt.org/acme/revoke-cert"
}
2018-06-04 11:20:25,799:INFO:certbot.main:Obtaining a new certificate
2018-06-04 11:20:25,832:DEBUG:certbot.crypto_util:Generating key (2048 bits): /Users/david/dev/vario.buildlog/certbot/keys/0001_key-certbot.pem
2018-06-04 11:20:25,834:DEBUG:certbot.crypto_util:Creating CSR: /Users/david/dev/vario.buildlog/certbot/csr/0001_csr-certbot.pem
2018-06-04 11:20:25,835:DEBUG:acme.client:Requesting fresh nonce
2018-06-04 11:20:25,835:DEBUG:acme.client:Sending HEAD request to https://acme-v01.api.letsencrypt.org/acme/new-authz.
2018-06-04 11:20:25,893:DEBUG:urllib3.connectionpool:https://acme-v01.api.letsencrypt.org:443 "HEAD /acme/new-authz HTTP/1.1" 405 0
2018-06-04 11:20:25,894:DEBUG:acme.client:Received response:
HTTP 405
Server: nginx
Content-Type: application/problem+json
Content-Length: 91
Allow: POST
Replay-Nonce: qVyKJC486cLiIA6_JOi08yNLf3W1KjiD0VpsbvF8-TA
Expires: Mon, 04 Jun 2018 18:20:25 GMT
Cache-Control: max-age=0, no-cache, no-store
Pragma: no-cache
Date: Mon, 04 Jun 2018 18:20:25 GMT
Connection: keep-alive


2018-06-04 11:20:25,894:DEBUG:acme.client:Storing nonce: qVyKJC486cLiIA6_JOi08yNLf3W1KjiD0VpsbvF8-TA
2018-06-04 11:20:25,895:DEBUG:acme.client:JWS payload:
{
  "identifier": {
    "type": "dns", 
    "value": "buildlog.vair.io"
  }, 
  "resource": "new-authz"
}
2018-06-04 11:20:25,898:DEBUG:acme.client:Sending POST request to https://acme-v01.api.letsencrypt.org/acme/new-authz:
{
  "protected": "eyJub25jZSI6ICJxVnlLSkM0ODZjTGlJQTZfSk9pMDh5TkxmM1cxS2ppRDBWcHNidkY4LVRBIiwgImFsZyI6ICJSUzI1NiIsICJqd2siOiB7ImUiOiAiQVFBQiIsICJrdHkiOiAiUlNBIiwgIm4iOiAibVMydFZsbVVhR3pqNWE5bmFYN1VJUC12OVVMcDdYNzhxZ2duZ0EzcjlIeWt6S1kzN3M0dEE0ZzI1ZlA3Wmt1UW1hQlpGU25OLVg3YWQxM0QzTy00TXFjLVhSY25sNU1majdWZ0pzY28yQjRyYkR4ZTFWeTBuTGZ6ZWtNeG9zSnhmMjdyQURha1hZZk4xSldZWld0M1hzVFkxRHhocEs0MXc2MFV2eDhkaFlRQndUWHpqZ1dOZVBsSS16aWZmMUlyNFBGZTZqYlZ4OElOdmJyUkpWSVlfbmVMRWdzUUFqUE13a2hGTW5oTnVhTmVnaWR4TzNDVG14ZmVjSVMtdnVSX1dqSy1FVUlKVHFfal8tQWFZWjlMYnNPbzFpXzhhTkJEUjRUNTI1UC1BeERIOTZ6SExobkxSQlU3ZkkxZlhxaVh2V25GYVRSVlNvekFNVjAwNTMxXzZRIn19", 
  "payload": "ewogICJpZGVudGlmaWVyIjogewogICAgInR5cGUiOiAiZG5zIiwgCiAgICAidmFsdWUiOiAiYnVpbGRsb2cudmFpci5pbyIKICB9LCAKICAicmVzb3VyY2UiOiAibmV3LWF1dGh6Igp9", 
  "signature": "hWGcr2UbW8iboibzuMNGhDG3SN8jKGgsisBzJFTaMHcRmYLnJKs18O4h2XOl2-oqfsXdmcIl9MQz6DSeF0rzHlV74SYKpGfXqE-ZHTa5VcbFT9KQZeaoe_AuHXzyVcSeGu2GPlmxf2V7FIxXF5M01JsKmfYnvo2K-XDLHoZTj6qRS9m3oLM14CNOST1Z9pKg4cuuAM4gkvswY0M5YLS-X2i8-hUcHADtWGlqM4cvWQ1JZf0zqa8-G9N1pw0givve62-L8pHTDtjBMp1zrG98QK7e1s_q_ZiC26C4h400wKwIm2MExiyHjVNYZVzKSNaV0QrfMqvwdjTm2oY3OvOClA"
}
2018-06-04 11:20:25,972:DEBUG:urllib3.connectionpool:https://acme-v01.api.letsencrypt.org:443 "POST /acme/new-authz HTTP/1.1" 201 721
2018-06-04 11:20:25,973:DEBUG:acme.client:Received response:
HTTP 201
Server: nginx
Content-Type: application/json
Content-Length: 721
Boulder-Requester: 36080567
Link: <https://acme-v01.api.letsencrypt.org/acme/new-cert>;rel="next"
Location: https://acme-v01.api.letsencrypt.org/acme/authz/193-hEFY4-m9xe-NFdE5DFs7N9UmEC_K3VBFPKecPDg
Replay-Nonce: ssSGZqI_sUrtTBHFSX6IgPClP6z5GMrkllJAXimuUc0
X-Frame-Options: DENY
Strict-Transport-Security: max-age=604800
Expires: Mon, 04 Jun 2018 18:20:25 GMT
Cache-Control: max-age=0, no-cache, no-store
Pragma: no-cache
Date: Mon, 04 Jun 2018 18:20:25 GMT
Connection: keep-alive

{
  "identifier": {
    "type": "dns",
    "value": "buildlog.vair.io"
  },
  "status": "pending",
  "expires": "2018-06-11T18:19:32Z",
  "challenges": [
    {
      "type": "dns-01",
      "status": "pending",
      "uri": "https://acme-v01.api.letsencrypt.org/acme/challenge/193-hEFY4-m9xe-NFdE5DFs7N9UmEC_K3VBFPKecPDg/4957477894",
      "token": "oYJBT1NSA8IZhC6i0tDkPbYRg9LpNJuCedneDsX0nX0"
    },
    {
      "type": "http-01",
      "status": "pending",
      "uri": "https://acme-v01.api.letsencrypt.org/acme/challenge/193-hEFY4-m9xe-NFdE5DFs7N9UmEC_K3VBFPKecPDg/4957477895",
      "token": "9F7aAOpjmK9k4Yomx-dtzLyvWMoTGtxjgOBr_IEhhFg"
    }
  ],
  "combinations": [
    [
      0
    ],
    [
      1
    ]
  ]
}
2018-06-04 11:20:25,974:DEBUG:acme.client:Storing nonce: ssSGZqI_sUrtTBHFSX6IgPClP6z5GMrkllJAXimuUc0
2018-06-04 11:20:25,974:INFO:certbot.auth_handler:Performing the following challenges:
2018-06-04 11:20:25,975:INFO:certbot.auth_handler:http-01 challenge for buildlog.vair.io
2018-06-04 11:20:38,637:INFO:certbot.auth_handler:Waiting for verification...
2018-06-04 11:20:38,638:DEBUG:acme.client:JWS payload:
{
  "keyAuthorization": "9F7aAOpjmK9k4Yomx-dtzLyvWMoTGtxjgOBr_IEhhFg.3hzmoim6V7_38tI29UeaQ3U7ygS-UUpg5gBX78oJX3U", 
  "type": "http-01", 
  "resource": "challenge"
}
2018-06-04 11:20:38,640:DEBUG:acme.client:Sending POST request to https://acme-v01.api.letsencrypt.org/acme/challenge/193-hEFY4-m9xe-NFdE5DFs7N9UmEC_K3VBFPKecPDg/4957477895:
{
  "protected": "eyJub25jZSI6ICJzc1NHWnFJX3NVcnRUQkhGU1g2SWdQQ2xQNno1R01ya2xsSkFYaW11VWMwIiwgImFsZyI6ICJSUzI1NiIsICJqd2siOiB7ImUiOiAiQVFBQiIsICJrdHkiOiAiUlNBIiwgIm4iOiAibVMydFZsbVVhR3pqNWE5bmFYN1VJUC12OVVMcDdYNzhxZ2duZ0EzcjlIeWt6S1kzN3M0dEE0ZzI1ZlA3Wmt1UW1hQlpGU25OLVg3YWQxM0QzTy00TXFjLVhSY25sNU1majdWZ0pzY28yQjRyYkR4ZTFWeTBuTGZ6ZWtNeG9zSnhmMjdyQURha1hZZk4xSldZWld0M1hzVFkxRHhocEs0MXc2MFV2eDhkaFlRQndUWHpqZ1dOZVBsSS16aWZmMUlyNFBGZTZqYlZ4OElOdmJyUkpWSVlfbmVMRWdzUUFqUE13a2hGTW5oTnVhTmVnaWR4TzNDVG14ZmVjSVMtdnVSX1dqSy1FVUlKVHFfal8tQWFZWjlMYnNPbzFpXzhhTkJEUjRUNTI1UC1BeERIOTZ6SExobkxSQlU3ZkkxZlhxaVh2V25GYVRSVlNvekFNVjAwNTMxXzZRIn19", 
  "payload": "ewogICJrZXlBdXRob3JpemF0aW9uIjogIjlGN2FBT3BqbUs5azRZb214LWR0ekx5dldNb1RHdHhqZ09Ccl9JRWhoRmcuM2h6bW9pbTZWN18zOHRJMjlVZWFRM1U3eWdTLVVVcGc1Z0JYNzhvSlgzVSIsIAogICJ0eXBlIjogImh0dHAtMDEiLCAKICAicmVzb3VyY2UiOiAiY2hhbGxlbmdlIgp9", 
  "signature": "C9aYb2KyAWWdX-SaOaoIyoBqnZ_uo6qnCGKJIdC_Y4kuo40-5ZZtOAchQAFU6EF6kD5PqmB7lx6x5Mx7SUyPev13r4BwInRto84COvMdjiqGpt_T4zlhM9pfBbo6bWKqCn-7l_jBrkqoCcH_aVfqQdO_Q5gipRns5fk2vaiJyir150RuXZ7HoXg9PaGCmipMh3Xf6g9j8QY33gNt7oKkzzbyvgT9CtnNcmKGjATCPeuUDs7OdQcOrTQRe5PSAgP2M5E7thotlJ9A4zZiUDNomFfsQF3DE-vxnm97M984TRJvSa0wDh_LjmxOFltWpmWvpfZrV_l1pCyQVBJYE7rBWQ"
}
2018-06-04 11:20:38,717:DEBUG:urllib3.connectionpool:https://acme-v01.api.letsencrypt.org:443 "POST /acme/challenge/193-hEFY4-m9xe-NFdE5DFs7N9UmEC_K3VBFPKecPDg/4957477895 HTTP/1.1" 202 336
2018-06-04 11:20:38,717:DEBUG:acme.client:Received response:
HTTP 202
Server: nginx
Content-Type: application/json
Content-Length: 336
Boulder-Requester: 36080567
Link: <https://acme-v01.api.letsencrypt.org/acme/authz/193-hEFY4-m9xe-NFdE5DFs7N9UmEC_K3VBFPKecPDg>;rel="up"
Location: https://acme-v01.api.letsencrypt.org/acme/challenge/193-hEFY4-m9xe-NFdE5DFs7N9UmEC_K3VBFPKecPDg/4957477895
Replay-Nonce: Q9-axQH2fg_gB6GoOgNHWxaT6dkN9BpwmUdPh0TLt5M
Expires: Mon, 04 Jun 2018 18:20:38 GMT
Cache-Control: max-age=0, no-cache, no-store
Pragma: no-cache
Date: Mon, 04 Jun 2018 18:20:38 GMT
Connection: keep-alive

{
  "type": "http-01",
  "status": "pending",
  "uri": "https://acme-v01.api.letsencrypt.org/acme/challenge/193-hEFY4-m9xe-NFdE5DFs7N9UmEC_K3VBFPKecPDg/4957477895",
  "token": "9F7aAOpjmK9k4Yomx-dtzLyvWMoTGtxjgOBr_IEhhFg",
  "keyAuthorization": "9F7aAOpjmK9k4Yomx-dtzLyvWMoTGtxjgOBr_IEhhFg.3hzmoim6V7_38tI29UeaQ3U7ygS-UUpg5gBX78oJX3U"
}
2018-06-04 11:20:38,718:DEBUG:acme.client:Storing nonce: Q9-axQH2fg_gB6GoOgNHWxaT6dkN9BpwmUdPh0TLt5M
2018-06-04 11:20:41,718:DEBUG:acme.client:Sending GET request to https://acme-v01.api.letsencrypt.org/acme/authz/193-hEFY4-m9xe-NFdE5DFs7N9UmEC_K3VBFPKecPDg.
2018-06-04 11:20:41,776:DEBUG:urllib3.connectionpool:https://acme-v01.api.letsencrypt.org:443 "GET /acme/authz/193-hEFY4-m9xe-NFdE5DFs7N9UmEC_K3VBFPKecPDg HTTP/1.1" 200 1619
2018-06-04 11:20:41,777:DEBUG:acme.client:Received response:
HTTP 200
Server: nginx
Content-Type: application/json
Content-Length: 1619
Link: <https://acme-v01.api.letsencrypt.org/acme/new-cert>;rel="next"
Replay-Nonce: wXif-KB6NCZQLHEQce__LGS9pSYkdeiL0L0B7X0y0bs
X-Frame-Options: DENY
Strict-Transport-Security: max-age=604800
Expires: Mon, 04 Jun 2018 18:20:41 GMT
Cache-Control: max-age=0, no-cache, no-store
Pragma: no-cache
Date: Mon, 04 Jun 2018 18:20:41 GMT
Connection: keep-alive

{
  "identifier": {
    "type": "dns",
    "value": "buildlog.vair.io"
  },
  "status": "invalid",
  "expires": "2018-06-11T18:19:32Z",
  "challenges": [
    {
      "type": "dns-01",
      "status": "invalid",
      "uri": "https://acme-v01.api.letsencrypt.org/acme/challenge/193-hEFY4-m9xe-NFdE5DFs7N9UmEC_K3VBFPKecPDg/4957477894",
      "token": "oYJBT1NSA8IZhC6i0tDkPbYRg9LpNJuCedneDsX0nX0"
    },
    {
      "type": "http-01",
      "status": "invalid",
      "error": {
        "type": "urn:acme:error:unauthorized",
        "detail": "Invalid response from http://buildlog.vair.io/.well-known/acme-challenge/9F7aAOpjmK9k4Yomx-dtzLyvWMoTGtxjgOBr_IEhhFg: \"\n\u003c!DOCTYPE html\u003e\n\u003chtml\u003e\n\u003chead\u003e\n  \u003cmeta content=\"width=device-width, initial-scale=1, maximum-scale=1\" name=\"viewport\"\u003e\n  \u003ctitle\u003e\"",
        "status": 403
      },
      "uri": "https://acme-v01.api.letsencrypt.org/acme/challenge/193-hEFY4-m9xe-NFdE5DFs7N9UmEC_K3VBFPKecPDg/4957477895",
      "token": "9F7aAOpjmK9k4Yomx-dtzLyvWMoTGtxjgOBr_IEhhFg",
      "keyAuthorization": "9F7aAOpjmK9k4Yomx-dtzLyvWMoTGtxjgOBr_IEhhFg.3hzmoim6V7_38tI29UeaQ3U7ygS-UUpg5gBX78oJX3U",
      "validationRecord": [
        {
          "url": "http://buildlog.vair.io/.well-known/acme-challenge/9F7aAOpjmK9k4Yomx-dtzLyvWMoTGtxjgOBr_IEhhFg",
          "hostname": "buildlog.vair.io",
          "port": "80",
          "addressesResolved": [
            "52.167.214.135"
          ],
          "addressUsed": "52.167.214.135"
        }
      ]
    }
  ],
  "combinations": [
    [
      0
    ],
    [
      1
    ]
  ]
}
2018-06-04 11:20:41,778:DEBUG:certbot.reporter:Reporting to user: The following errors were reported by the server:

Domain: buildlog.vair.io
Type:   unauthorized
Detail: Invalid response from http://buildlog.vair.io/.well-known/acme-challenge/9F7aAOpjmK9k4Yomx-dtzLyvWMoTGtxjgOBr_IEhhFg: "
<!DOCTYPE html>
<html>
<head>
  <meta content="width=device-width, initial-scale=1, maximum-scale=1" name="viewport">
  <title>"

To fix these errors, please make sure that your domain name was entered correctly and the DNS A/AAAA record(s) for that domain contain(s) the right IP address.
2018-06-04 11:20:41,779:DEBUG:certbot.error_handler:Encountered exception:
Traceback (most recent call last):
  File "/opt/local/Library/Frameworks/Python.framework/Versions/2.7/lib/python2.7/site-packages/certbot/auth_handler.py", line 80, in handle_authorizations
    self._respond(aauthzrs, resp, best_effort)
  File "/opt/local/Library/Frameworks/Python.framework/Versions/2.7/lib/python2.7/site-packages/certbot/auth_handler.py", line 153, in _respond
    self._poll_challenges(aauthzrs, chall_update, best_effort)
  File "/opt/local/Library/Frameworks/Python.framework/Versions/2.7/lib/python2.7/site-packages/certbot/auth_handler.py", line 224, in _poll_challenges
    raise errors.FailedChallenges(all_failed_achalls)
FailedChallenges: Failed authorization procedure. buildlog.vair.io (http-01): urn:acme:error:unauthorized :: The client lacks sufficient authorization :: Invalid response from http://buildlog.vair.io/.well-known/acme-challenge/9F7aAOpjmK9k4Yomx-dtzLyvWMoTGtxjgOBr_IEhhFg: "
<!DOCTYPE html>
<html>
<head>
  <meta content="width=device-width, initial-scale=1, maximum-scale=1" name="viewport">
  <title>"

2018-06-04 11:20:41,779:DEBUG:certbot.error_handler:Calling registered functions
2018-06-04 11:20:41,779:INFO:certbot.auth_handler:Cleaning up challenges
2018-06-04 11:20:41,779:DEBUG:certbot.log:Exiting abnormally:
Traceback (most recent call last):
  File "/opt/local/Library/Frameworks/Python.framework/Versions/2.7/bin/certbot", line 11, in <module>
    load_entry_point('certbot==0.24.0', 'console_scripts', 'certbot')()
  File "/opt/local/Library/Frameworks/Python.framework/Versions/2.7/lib/python2.7/site-packages/certbot/main.py", line 1315, in main
    return config.func(config, plugins)
  File "/opt/local/Library/Frameworks/Python.framework/Versions/2.7/lib/python2.7/site-packages/certbot/main.py", line 1206, in certonly
    lineage = _get_and_save_cert(le_client, config, domains, certname, lineage)
  File "/opt/local/Library/Frameworks/Python.framework/Versions/2.7/lib/python2.7/site-packages/certbot/main.py", line 118, in _get_and_save_cert
    lineage = le_client.obtain_and_enroll_certificate(domains, certname)
  File "/opt/local/Library/Frameworks/Python.framework/Versions/2.7/lib/python2.7/site-packages/certbot/client.py", line 351, in obtain_and_enroll_certificate
    cert, chain, key, _ = self.obtain_certificate(domains)
  File "/opt/local/Library/Frameworks/Python.framework/Versions/2.7/lib/python2.7/site-packages/certbot/client.py", line 294, in obtain_certificate
    orderr = self._get_order_and_authorizations(csr.data, self.config.allow_subset_of_names)
  File "/opt/local/Library/Frameworks/Python.framework/Versions/2.7/lib/python2.7/site-packages/certbot/client.py", line 330, in _get_order_and_authorizations
    authzr = self.auth_handler.handle_authorizations(orderr, best_effort)
  File "/opt/local/Library/Frameworks/Python.framework/Versions/2.7/lib/python2.7/site-packages/certbot/auth_handler.py", line 80, in handle_authorizations
    self._respond(aauthzrs, resp, best_effort)
  File "/opt/local/Library/Frameworks/Python.framework/Versions/2.7/lib/python2.7/site-packages/certbot/auth_handler.py", line 153, in _respond
    self._poll_challenges(aauthzrs, chall_update, best_effort)
  File "/opt/local/Library/Frameworks/Python.framework/Versions/2.7/lib/python2.7/site-packages/certbot/auth_handler.py", line 224, in _poll_challenges
    raise errors.FailedChallenges(all_failed_achalls)
FailedChallenges: Failed authorization procedure. buildlog.vair.io (http-01): urn:acme:error:unauthorized :: The client lacks sufficient authorization :: Invalid response from http://buildlog.vair.io/.well-known/acme-challenge/9F7aAOpjmK9k4Yomx-dtzLyvWMoTGtxjgOBr_IEhhFg: "
<!DOCTYPE html>
<html>
<head>
  <meta content="width=device-width, initial-scale=1, maximum-scale=1" name="viewport">
  <title>"
