2018-06-04 22:50:42,557:DEBUG:certbot.main:certbot version: 0.24.0
2018-06-04 22:50:42,557:DEBUG:certbot.main:Arguments: ['--manual', '--config-dir', './', '--work-dir', './', '--logs-dir', './', '-d', 'buildlog.vair.io']
2018-06-04 22:50:42,557:DEBUG:certbot.main:Discovered plugins: PluginsRegistry(PluginEntryPoint#manual,PluginEntryPoint#null,PluginEntryPoint#standalone,PluginEntryPoint#webroot)
2018-06-04 22:50:42,590:DEBUG:certbot.log:Root logging level set at 20
2018-06-04 22:50:42,591:INFO:certbot.log:Saving debug log to /Users/david/dev/vario.buildlog/certbot/letsencrypt.log
2018-06-04 22:50:42,591:DEBUG:certbot.plugins.selection:Requested authenticator manual and installer None
2018-06-04 22:50:42,595:DEBUG:certbot.plugins.selection:Single candidate plugin: * manual
Description: Manual configuration or run your own shell scripts
Interfaces: IAuthenticator, IPlugin
Entry point: manual = certbot.plugins.manual:Authenticator
Initialized: <certbot.plugins.manual.Authenticator object at 0x10c770290>
Prep: True
2018-06-04 22:50:42,595:DEBUG:certbot.plugins.selection:Selected authenticator <certbot.plugins.manual.Authenticator object at 0x10c770290> and installer None
2018-06-04 22:50:42,595:INFO:certbot.plugins.selection:Plugins selected: Authenticator manual, Installer None
2018-06-04 22:50:42,600:DEBUG:certbot.main:Picked account: <Account(RegistrationResource(body=Registration(status=u'valid', terms_of_service_agreed=None, contact=(u'mailto:david@vair.io',), agreement=u'https://letsencrypt.org/documents/LE-SA-v1.2-November-15-2017.pdf', key=JWKRSA(key=<ComparableRSAKey(<cryptography.hazmat.backends.openssl.rsa._RSAPublicKey object at 0x10c7de290>)>)), uri=u'https://acme-v01.api.letsencrypt.org/acme/reg/36080567', new_authzr_uri=u'https://acme-v01.api.letsencrypt.org/acme/new-authz', terms_of_service=u'https://letsencrypt.org/documents/LE-SA-v1.2-November-15-2017.pdf'), 463c970b956a24ea904beade7688c2c8, Meta(creation_host=u'davids-macbook-pro.local', creation_dt=datetime.datetime(2018, 6, 4, 18, 19, 29, tzinfo=<UTC>)))>
2018-06-04 22:50:42,614:DEBUG:acme.client:Sending GET request to https://acme-v01.api.letsencrypt.org/directory.
2018-06-04 22:50:42,794:DEBUG:urllib3.connectionpool:Starting new HTTPS connection (1): acme-v01.api.letsencrypt.org
2018-06-04 22:50:43,032:DEBUG:urllib3.connectionpool:https://acme-v01.api.letsencrypt.org:443 "GET /directory HTTP/1.1" 200 658
2018-06-04 22:50:43,034:DEBUG:acme.client:Received response:
HTTP 200
Server: nginx
Content-Type: application/json
Content-Length: 658
Replay-Nonce: Q2byeHiVQpvDcfxwWGLE2Zepx5Nn8okl-htTO2sFErI
X-Frame-Options: DENY
Strict-Transport-Security: max-age=604800
Expires: Tue, 05 Jun 2018 05:50:43 GMT
Cache-Control: max-age=0, no-cache, no-store
Pragma: no-cache
Date: Tue, 05 Jun 2018 05:50:43 GMT
Connection: keep-alive

{
  "E7-bnov7T30": "https://community.letsencrypt.org/t/adding-random-entries-to-the-directory/33417",
  "key-change": "https://acme-v01.api.letsencrypt.org/acme/key-change",
  "meta": {
    "caaIdentities": [
      "letsencrypt.org"
    ],
    "terms-of-service": "https://letsencrypt.org/documents/LE-SA-v1.2-November-15-2017.pdf",
    "website": "https://letsencrypt.org"
  },
  "new-authz": "https://acme-v01.api.letsencrypt.org/acme/new-authz",
  "new-cert": "https://acme-v01.api.letsencrypt.org/acme/new-cert",
  "new-reg": "https://acme-v01.api.letsencrypt.org/acme/new-reg",
  "revoke-cert": "https://acme-v01.api.letsencrypt.org/acme/revoke-cert"
}
2018-06-04 22:50:43,035:INFO:certbot.main:Obtaining a new certificate
2018-06-04 22:50:43,068:DEBUG:certbot.crypto_util:Generating key (2048 bits): /Users/david/dev/vario.buildlog/certbot/keys/0002_key-certbot.pem
2018-06-04 22:50:43,070:DEBUG:certbot.crypto_util:Creating CSR: /Users/david/dev/vario.buildlog/certbot/csr/0002_csr-certbot.pem
2018-06-04 22:50:43,071:DEBUG:acme.client:Requesting fresh nonce
2018-06-04 22:50:43,071:DEBUG:acme.client:Sending HEAD request to https://acme-v01.api.letsencrypt.org/acme/new-authz.
2018-06-04 22:50:43,125:DEBUG:urllib3.connectionpool:https://acme-v01.api.letsencrypt.org:443 "HEAD /acme/new-authz HTTP/1.1" 405 0
2018-06-04 22:50:43,126:DEBUG:acme.client:Received response:
HTTP 405
Server: nginx
Content-Type: application/problem+json
Content-Length: 91
Allow: POST
Replay-Nonce: ZOPIaZYwxjZ4RkMJ5ytKn84vQ5wibJnP1wdZQXKPsDs
Expires: Tue, 05 Jun 2018 05:50:43 GMT
Cache-Control: max-age=0, no-cache, no-store
Pragma: no-cache
Date: Tue, 05 Jun 2018 05:50:43 GMT
Connection: keep-alive


2018-06-04 22:50:43,126:DEBUG:acme.client:Storing nonce: ZOPIaZYwxjZ4RkMJ5ytKn84vQ5wibJnP1wdZQXKPsDs
2018-06-04 22:50:43,127:DEBUG:acme.client:JWS payload:
{
  "identifier": {
    "type": "dns", 
    "value": "buildlog.vair.io"
  }, 
  "resource": "new-authz"
}
2018-06-04 22:50:43,130:DEBUG:acme.client:Sending POST request to https://acme-v01.api.letsencrypt.org/acme/new-authz:
{
  "protected": "eyJub25jZSI6ICJaT1BJYVpZd3hqWjRSa01KNXl0S244NHZRNXdpYkpuUDF3ZFpRWEtQc0RzIiwgImFsZyI6ICJSUzI1NiIsICJqd2siOiB7ImUiOiAiQVFBQiIsICJrdHkiOiAiUlNBIiwgIm4iOiAibVMydFZsbVVhR3pqNWE5bmFYN1VJUC12OVVMcDdYNzhxZ2duZ0EzcjlIeWt6S1kzN3M0dEE0ZzI1ZlA3Wmt1UW1hQlpGU25OLVg3YWQxM0QzTy00TXFjLVhSY25sNU1majdWZ0pzY28yQjRyYkR4ZTFWeTBuTGZ6ZWtNeG9zSnhmMjdyQURha1hZZk4xSldZWld0M1hzVFkxRHhocEs0MXc2MFV2eDhkaFlRQndUWHpqZ1dOZVBsSS16aWZmMUlyNFBGZTZqYlZ4OElOdmJyUkpWSVlfbmVMRWdzUUFqUE13a2hGTW5oTnVhTmVnaWR4TzNDVG14ZmVjSVMtdnVSX1dqSy1FVUlKVHFfal8tQWFZWjlMYnNPbzFpXzhhTkJEUjRUNTI1UC1BeERIOTZ6SExobkxSQlU3ZkkxZlhxaVh2V25GYVRSVlNvekFNVjAwNTMxXzZRIn19", 
  "payload": "ewogICJpZGVudGlmaWVyIjogewogICAgInR5cGUiOiAiZG5zIiwgCiAgICAidmFsdWUiOiAiYnVpbGRsb2cudmFpci5pbyIKICB9LCAKICAicmVzb3VyY2UiOiAibmV3LWF1dGh6Igp9", 
  "signature": "egn6aCFHSltFQyV2vUzQLN24tM_5LaMBqprUlMNonetQGTtfe8BSXoHyiKjWQ8EHX6Cv0Ge4QWhbHnIR2iQZ1tZY1RXgWjfQyi3XAq089fNwOQPjvEWPIZZEbiDMx29VB2yVkHo6L0lried3SOr_rk5KMKxXt7BevXdT10kTnMXOVJXADiaygpYg5iWlJ_RpMoVeTNoysCzUSywXoXMCceN28Le_TxoMnEC4YvLAhFCaDhX9JPacbY9koWeNjSesjYhxbSe-8JNLKPunMtk4pikJlmcZEDXnE1Q1SNwm4GNA2jKi_-2Lri0yThAW3h1D0tRSVgIuwSX6f7LO8GM38g"
}
2018-06-04 22:50:43,202:DEBUG:urllib3.connectionpool:https://acme-v01.api.letsencrypt.org:443 "POST /acme/new-authz HTTP/1.1" 201 721
2018-06-04 22:50:43,203:DEBUG:acme.client:Received response:
HTTP 201
Server: nginx
Content-Type: application/json
Content-Length: 721
Boulder-Requester: 36080567
Link: <https://acme-v01.api.letsencrypt.org/acme/new-cert>;rel="next"
Location: https://acme-v01.api.letsencrypt.org/acme/authz/UI41w6f-fnl0C8WsvT7_ao0JC-zE6jQUHqAw_oWi4Oo
Replay-Nonce: wJSXFOlgq_nx7ufZ7t-jIAMiXXDLMjrYkBJayZWgwjE
X-Frame-Options: DENY
Strict-Transport-Security: max-age=604800
Expires: Tue, 05 Jun 2018 05:50:43 GMT
Cache-Control: max-age=0, no-cache, no-store
Pragma: no-cache
Date: Tue, 05 Jun 2018 05:50:43 GMT
Connection: keep-alive

{
  "identifier": {
    "type": "dns",
    "value": "buildlog.vair.io"
  },
  "status": "pending",
  "expires": "2018-06-12T05:50:43Z",
  "challenges": [
    {
      "type": "http-01",
      "status": "pending",
      "uri": "https://acme-v01.api.letsencrypt.org/acme/challenge/UI41w6f-fnl0C8WsvT7_ao0JC-zE6jQUHqAw_oWi4Oo/4964840707",
      "token": "vjA0-abHb9w8Mqz297d8Rgk6rjWMCEYuuzb6zF8tiYQ"
    },
    {
      "type": "dns-01",
      "status": "pending",
      "uri": "https://acme-v01.api.letsencrypt.org/acme/challenge/UI41w6f-fnl0C8WsvT7_ao0JC-zE6jQUHqAw_oWi4Oo/4964840708",
      "token": "TvngBaQD02diD8BipZ6K3qF0ZEuG9Xt9MvT-o-FX2U4"
    }
  ],
  "combinations": [
    [
      0
    ],
    [
      1
    ]
  ]
}
2018-06-04 22:50:43,203:DEBUG:acme.client:Storing nonce: wJSXFOlgq_nx7ufZ7t-jIAMiXXDLMjrYkBJayZWgwjE
2018-06-04 22:50:43,204:INFO:certbot.auth_handler:Performing the following challenges:
2018-06-04 22:50:43,204:INFO:certbot.auth_handler:http-01 challenge for buildlog.vair.io
2018-06-04 22:50:46,420:INFO:certbot.auth_handler:Waiting for verification...
2018-06-04 22:50:46,420:DEBUG:acme.client:JWS payload:
{
  "keyAuthorization": "vjA0-abHb9w8Mqz297d8Rgk6rjWMCEYuuzb6zF8tiYQ.3hzmoim6V7_38tI29UeaQ3U7ygS-UUpg5gBX78oJX3U", 
  "type": "http-01", 
  "resource": "challenge"
}
2018-06-04 22:50:46,423:DEBUG:acme.client:Sending POST request to https://acme-v01.api.letsencrypt.org/acme/challenge/UI41w6f-fnl0C8WsvT7_ao0JC-zE6jQUHqAw_oWi4Oo/4964840707:
{
  "protected": "eyJub25jZSI6ICJ3SlNYRk9sZ3Ffbng3dWZaN3QtaklBTWlYWERMTWpyWWtCSmF5Wldnd2pFIiwgImFsZyI6ICJSUzI1NiIsICJqd2siOiB7ImUiOiAiQVFBQiIsICJrdHkiOiAiUlNBIiwgIm4iOiAibVMydFZsbVVhR3pqNWE5bmFYN1VJUC12OVVMcDdYNzhxZ2duZ0EzcjlIeWt6S1kzN3M0dEE0ZzI1ZlA3Wmt1UW1hQlpGU25OLVg3YWQxM0QzTy00TXFjLVhSY25sNU1majdWZ0pzY28yQjRyYkR4ZTFWeTBuTGZ6ZWtNeG9zSnhmMjdyQURha1hZZk4xSldZWld0M1hzVFkxRHhocEs0MXc2MFV2eDhkaFlRQndUWHpqZ1dOZVBsSS16aWZmMUlyNFBGZTZqYlZ4OElOdmJyUkpWSVlfbmVMRWdzUUFqUE13a2hGTW5oTnVhTmVnaWR4TzNDVG14ZmVjSVMtdnVSX1dqSy1FVUlKVHFfal8tQWFZWjlMYnNPbzFpXzhhTkJEUjRUNTI1UC1BeERIOTZ6SExobkxSQlU3ZkkxZlhxaVh2V25GYVRSVlNvekFNVjAwNTMxXzZRIn19", 
  "payload": "ewogICJrZXlBdXRob3JpemF0aW9uIjogInZqQTAtYWJIYjl3OE1xejI5N2Q4UmdrNnJqV01DRVl1dXpiNnpGOHRpWVEuM2h6bW9pbTZWN18zOHRJMjlVZWFRM1U3eWdTLVVVcGc1Z0JYNzhvSlgzVSIsIAogICJ0eXBlIjogImh0dHAtMDEiLCAKICAicmVzb3VyY2UiOiAiY2hhbGxlbmdlIgp9", 
  "signature": "Js_w638CLfEyE3pYsn6s1xDAUwazFv7pThtRIWej1weCRmH4jd8Yz0oGknZSgtg6MzVdtxPd6AR2UxtMrdMuZXNdSuzm7-xZM7oR-VwiA4DDNH-bey7tvtWCnDoTi2cmV2C59M-cQckXXzFHm_RGUCXWOrtB39WWYO11XhrwuNn1gqmMWusJjHmrteA5oS1n42S4RxqCtqbzd57F9owdbERAEZJVT_--D3jjTo_gbAx8gJdzu0ZaoRP26wJucx5caQp3OKf_0VAfVsCZ75-sOuQrOxAeHONNKSNWJU48yPkC4HqkLQry35hkxdT7sq7wMGc5dzRmYUOw2tQl6aDsIQ"
}
2018-06-04 22:50:46,501:DEBUG:urllib3.connectionpool:https://acme-v01.api.letsencrypt.org:443 "POST /acme/challenge/UI41w6f-fnl0C8WsvT7_ao0JC-zE6jQUHqAw_oWi4Oo/4964840707 HTTP/1.1" 202 336
2018-06-04 22:50:46,502:DEBUG:acme.client:Received response:
HTTP 202
Server: nginx
Content-Type: application/json
Content-Length: 336
Boulder-Requester: 36080567
Link: <https://acme-v01.api.letsencrypt.org/acme/authz/UI41w6f-fnl0C8WsvT7_ao0JC-zE6jQUHqAw_oWi4Oo>;rel="up"
Location: https://acme-v01.api.letsencrypt.org/acme/challenge/UI41w6f-fnl0C8WsvT7_ao0JC-zE6jQUHqAw_oWi4Oo/4964840707
Replay-Nonce: 5vK34KTvArYWwbvWUuOzGzn2rbB7dhpXbplY8q3RKMw
Expires: Tue, 05 Jun 2018 05:50:46 GMT
Cache-Control: max-age=0, no-cache, no-store
Pragma: no-cache
Date: Tue, 05 Jun 2018 05:50:46 GMT
Connection: keep-alive

{
  "type": "http-01",
  "status": "pending",
  "uri": "https://acme-v01.api.letsencrypt.org/acme/challenge/UI41w6f-fnl0C8WsvT7_ao0JC-zE6jQUHqAw_oWi4Oo/4964840707",
  "token": "vjA0-abHb9w8Mqz297d8Rgk6rjWMCEYuuzb6zF8tiYQ",
  "keyAuthorization": "vjA0-abHb9w8Mqz297d8Rgk6rjWMCEYuuzb6zF8tiYQ.3hzmoim6V7_38tI29UeaQ3U7ygS-UUpg5gBX78oJX3U"
}
2018-06-04 22:50:46,502:DEBUG:acme.client:Storing nonce: 5vK34KTvArYWwbvWUuOzGzn2rbB7dhpXbplY8q3RKMw
2018-06-04 22:50:49,508:DEBUG:acme.client:Sending GET request to https://acme-v01.api.letsencrypt.org/acme/authz/UI41w6f-fnl0C8WsvT7_ao0JC-zE6jQUHqAw_oWi4Oo.
2018-06-04 22:50:49,569:DEBUG:urllib3.connectionpool:https://acme-v01.api.letsencrypt.org:443 "GET /acme/authz/UI41w6f-fnl0C8WsvT7_ao0JC-zE6jQUHqAw_oWi4Oo HTTP/1.1" 200 1619
2018-06-04 22:50:49,570:DEBUG:acme.client:Received response:
HTTP 200
Server: nginx
Content-Type: application/json
Content-Length: 1619
Link: <https://acme-v01.api.letsencrypt.org/acme/new-cert>;rel="next"
Replay-Nonce: E-g8H5t0CqfaaHaGGxpFHvO_7qY8qUN6waPBIdEo9js
X-Frame-Options: DENY
Strict-Transport-Security: max-age=604800
Expires: Tue, 05 Jun 2018 05:50:49 GMT
Cache-Control: max-age=0, no-cache, no-store
Pragma: no-cache
Date: Tue, 05 Jun 2018 05:50:49 GMT
Connection: keep-alive

{
  "identifier": {
    "type": "dns",
    "value": "buildlog.vair.io"
  },
  "status": "invalid",
  "expires": "2018-06-12T05:50:43Z",
  "challenges": [
    {
      "type": "http-01",
      "status": "invalid",
      "error": {
        "type": "urn:acme:error:unauthorized",
        "detail": "Invalid response from http://buildlog.vair.io/.well-known/acme-challenge/vjA0-abHb9w8Mqz297d8Rgk6rjWMCEYuuzb6zF8tiYQ: \"\n\u003c!DOCTYPE html\u003e\n\u003chtml\u003e\n\u003chead\u003e\n  \u003cmeta content=\"width=device-width, initial-scale=1, maximum-scale=1\" name=\"viewport\"\u003e\n  \u003ctitle\u003e\"",
        "status": 403
      },
      "uri": "https://acme-v01.api.letsencrypt.org/acme/challenge/UI41w6f-fnl0C8WsvT7_ao0JC-zE6jQUHqAw_oWi4Oo/4964840707",
      "token": "vjA0-abHb9w8Mqz297d8Rgk6rjWMCEYuuzb6zF8tiYQ",
      "keyAuthorization": "vjA0-abHb9w8Mqz297d8Rgk6rjWMCEYuuzb6zF8tiYQ.3hzmoim6V7_38tI29UeaQ3U7ygS-UUpg5gBX78oJX3U",
      "validationRecord": [
        {
          "url": "http://buildlog.vair.io/.well-known/acme-challenge/vjA0-abHb9w8Mqz297d8Rgk6rjWMCEYuuzb6zF8tiYQ",
          "hostname": "buildlog.vair.io",
          "port": "80",
          "addressesResolved": [
            "52.167.214.135"
          ],
          "addressUsed": "52.167.214.135"
        }
      ]
    },
    {
      "type": "dns-01",
      "status": "invalid",
      "uri": "https://acme-v01.api.letsencrypt.org/acme/challenge/UI41w6f-fnl0C8WsvT7_ao0JC-zE6jQUHqAw_oWi4Oo/4964840708",
      "token": "TvngBaQD02diD8BipZ6K3qF0ZEuG9Xt9MvT-o-FX2U4"
    }
  ],
  "combinations": [
    [
      0
    ],
    [
      1
    ]
  ]
}
2018-06-04 22:50:49,571:DEBUG:certbot.reporter:Reporting to user: The following errors were reported by the server:

Domain: buildlog.vair.io
Type:   unauthorized
Detail: Invalid response from http://buildlog.vair.io/.well-known/acme-challenge/vjA0-abHb9w8Mqz297d8Rgk6rjWMCEYuuzb6zF8tiYQ: "
<!DOCTYPE html>
<html>
<head>
  <meta content="width=device-width, initial-scale=1, maximum-scale=1" name="viewport">
  <title>"

To fix these errors, please make sure that your domain name was entered correctly and the DNS A/AAAA record(s) for that domain contain(s) the right IP address.
2018-06-04 22:50:49,572:DEBUG:certbot.error_handler:Encountered exception:
Traceback (most recent call last):
  File "/opt/local/Library/Frameworks/Python.framework/Versions/2.7/lib/python2.7/site-packages/certbot/auth_handler.py", line 80, in handle_authorizations
    self._respond(aauthzrs, resp, best_effort)
  File "/opt/local/Library/Frameworks/Python.framework/Versions/2.7/lib/python2.7/site-packages/certbot/auth_handler.py", line 153, in _respond
    self._poll_challenges(aauthzrs, chall_update, best_effort)
  File "/opt/local/Library/Frameworks/Python.framework/Versions/2.7/lib/python2.7/site-packages/certbot/auth_handler.py", line 224, in _poll_challenges
    raise errors.FailedChallenges(all_failed_achalls)
FailedChallenges: Failed authorization procedure. buildlog.vair.io (http-01): urn:acme:error:unauthorized :: The client lacks sufficient authorization :: Invalid response from http://buildlog.vair.io/.well-known/acme-challenge/vjA0-abHb9w8Mqz297d8Rgk6rjWMCEYuuzb6zF8tiYQ: "
<!DOCTYPE html>
<html>
<head>
  <meta content="width=device-width, initial-scale=1, maximum-scale=1" name="viewport">
  <title>"

2018-06-04 22:50:49,572:DEBUG:certbot.error_handler:Calling registered functions
2018-06-04 22:50:49,572:INFO:certbot.auth_handler:Cleaning up challenges
2018-06-04 22:50:49,572:DEBUG:certbot.log:Exiting abnormally:
Traceback (most recent call last):
  File "/opt/local/Library/Frameworks/Python.framework/Versions/2.7/bin/certbot", line 11, in <module>
    load_entry_point('certbot==0.24.0', 'console_scripts', 'certbot')()
  File "/opt/local/Library/Frameworks/Python.framework/Versions/2.7/lib/python2.7/site-packages/certbot/main.py", line 1315, in main
    return config.func(config, plugins)
  File "/opt/local/Library/Frameworks/Python.framework/Versions/2.7/lib/python2.7/site-packages/certbot/main.py", line 1206, in certonly
    lineage = _get_and_save_cert(le_client, config, domains, certname, lineage)
  File "/opt/local/Library/Frameworks/Python.framework/Versions/2.7/lib/python2.7/site-packages/certbot/main.py", line 118, in _get_and_save_cert
    lineage = le_client.obtain_and_enroll_certificate(domains, certname)
  File "/opt/local/Library/Frameworks/Python.framework/Versions/2.7/lib/python2.7/site-packages/certbot/client.py", line 351, in obtain_and_enroll_certificate
    cert, chain, key, _ = self.obtain_certificate(domains)
  File "/opt/local/Library/Frameworks/Python.framework/Versions/2.7/lib/python2.7/site-packages/certbot/client.py", line 294, in obtain_certificate
    orderr = self._get_order_and_authorizations(csr.data, self.config.allow_subset_of_names)
  File "/opt/local/Library/Frameworks/Python.framework/Versions/2.7/lib/python2.7/site-packages/certbot/client.py", line 330, in _get_order_and_authorizations
    authzr = self.auth_handler.handle_authorizations(orderr, best_effort)
  File "/opt/local/Library/Frameworks/Python.framework/Versions/2.7/lib/python2.7/site-packages/certbot/auth_handler.py", line 80, in handle_authorizations
    self._respond(aauthzrs, resp, best_effort)
  File "/opt/local/Library/Frameworks/Python.framework/Versions/2.7/lib/python2.7/site-packages/certbot/auth_handler.py", line 153, in _respond
    self._poll_challenges(aauthzrs, chall_update, best_effort)
  File "/opt/local/Library/Frameworks/Python.framework/Versions/2.7/lib/python2.7/site-packages/certbot/auth_handler.py", line 224, in _poll_challenges
    raise errors.FailedChallenges(all_failed_achalls)
FailedChallenges: Failed authorization procedure. buildlog.vair.io (http-01): urn:acme:error:unauthorized :: The client lacks sufficient authorization :: Invalid response from http://buildlog.vair.io/.well-known/acme-challenge/vjA0-abHb9w8Mqz297d8Rgk6rjWMCEYuuzb6zF8tiYQ: "
<!DOCTYPE html>
<html>
<head>
  <meta content="width=device-width, initial-scale=1, maximum-scale=1" name="viewport">
  <title>"
